\relax 
\bibstyle{plain}
\bibdata{mybib}
\bibcite{14}{1}
\bibcite{11}{2}
\bibcite{12}{3}
\bibcite{10}{4}
\@writefile{toc}{\contentsline {section}{\numberline {1}Introduction}{1}}
\@writefile{toc}{\contentsline {section}{\numberline {2}Materials \& methods}{1}}
\bibcite{7}{5}
\bibcite{6}{6}
\bibcite{4}{7}
\bibcite{15}{8}
\bibcite{2}{9}
\bibcite{9}{10}
\bibcite{8}{11}
\bibcite{3}{12}
\bibcite{1}{13}
\bibcite{5}{14}
\citation{1}
\citation{2}
\citation{3}
\citation{4}
\citation{5}
\citation{6}
\citation{7}
\citation{1}
\citation{8}
\citation{9}
\citation{1}
\citation{10}
\citation{11}
\citation{12}
\citation{3}
\citation{14}
\citation{15}
\citation{1}
\citation{1}
\citation{1}
