\relax 
\providecommand\hyper@newdestlabel[2]{}
\providecommand\HyperFirstAtBeginDocument{\AtBeginDocument}
\HyperFirstAtBeginDocument{\ifx\hyper@anchor\@undefined
\global\let\oldcontentsline\contentsline
\gdef\contentsline#1#2#3#4{\oldcontentsline{#1}{#2}{#3}}
\global\let\oldnewlabel\newlabel
\gdef\newlabel#1#2{\newlabelxx{#1}#2}
\gdef\newlabelxx#1#2#3#4#5#6{\oldnewlabel{#1}{{#2}{#3}}}
\AtEndDocument{\ifx\hyper@anchor\@undefined
\let\contentsline\oldcontentsline
\let\newlabel\oldnewlabel
\fi}
\fi}
\global\let\hyper@last\relax 
\gdef\HyperFirstAtBeginDocument#1{#1}
\providecommand\HyField@AuxAddToFields[1]{}
\providecommand\HyField@AuxAddToCoFields[2]{}
\@writefile{toc}{\contentsline {section}{Great Hoses}{2}{section*.1}}
\@writefile{toc}{\contentsline {section}{\numberline {1}Introduction}{3}{section.1}}
\@writefile{lot}{\contentsline {table}{\numberline {1}{\ignorespaces Example of calculation of bag-of-words sentiment score with each lexicon, matches in bold.\relax }}{4}{table.caption.2}}
\@writefile{toc}{\contentsline {section}{\numberline {2}Materials \& Methods}{4}{section.2}}
\@writefile{toc}{\contentsline {subsection}{\numberline {2.1}Computing Languages}{4}{subsection.2.1}}
\@writefile{toc}{\contentsline {subsection}{\numberline {2.2}Data Collection}{4}{subsection.2.2}}
\@writefile{toc}{\contentsline {subsection}{\numberline {2.3}The Sentiment Model}{4}{subsection.2.3}}
\@writefile{lot}{\contentsline {table}{\numberline {2}{\ignorespaces Table illustrating the the appropriateness of the 3 lexica\relax }}{5}{table.caption.3}}
\@writefile{toc}{\contentsline {subsection}{\numberline {2.4}Exploratory Data Analysis}{5}{subsection.2.4}}
\@writefile{lot}{\contentsline {table}{\numberline {3}{\ignorespaces Table summarising how the predictor variables across outcomes\relax }}{6}{table.caption.4}}
\@writefile{lof}{\contentsline {figure}{\numberline {1}{\ignorespaces distributions of covariates in each category of $N_{stars}$ per lexicon. Medians and upper/lower quartiles coloured red\relax }}{7}{figure.caption.5}}
\providecommand*\caption@xref[2]{\@setref\relax\@undefined{#1}}
\newlabel{fig:sfig1}{{1a}{7}{$Count$ plot\relax }{figure.caption.5}{}}
\newlabel{sub@fig:sfig1}{{a}{7}{$Count$ plot\relax }{figure.caption.5}{}}
\newlabel{fig:sfig2}{{1b}{7}{$Score$ plot\relax }{figure.caption.5}{}}
\newlabel{sub@fig:sfig2}{{b}{7}{$Score$ plot\relax }{figure.caption.5}{}}
\newlabel{fig:fig}{{1}{7}{distributions of covariates in each category of $N_{stars}$ per lexicon. Medians and upper/lower quartiles coloured red\relax }{figure.caption.5}{}}
\@writefile{toc}{\contentsline {subsection}{\numberline {2.5}Models Employed}{7}{subsection.2.5}}
\@writefile{toc}{\contentsline {subsection}{\numberline {2.6}Results}{9}{subsection.2.6}}
\newlabel{}{{\caption@xref {}{ on input line 326}}{11}{Results}{table.caption.6}{}}
\@writefile{lot}{\contentsline {table}{\numberline {4}{\ignorespaces Parameter estimates and results of tests of fit for all 6 models\relax }}{11}{table.caption.6}}
\@writefile{lot}{\contentsline {table}{\numberline {5}{\ignorespaces Exemplary confusion matrix  from Model 1\relax }}{12}{table.caption.7}}
\@writefile{toc}{\contentsline {section}{\numberline {3}Discussion}{12}{section.3}}
\@writefile{toc}{\contentsline {section}{\numberline {4}Conclusion}{14}{section.4}}
\@writefile{toc}{\contentsline {section}{\numberline {5}Appendix}{15}{section.5}}
\@writefile{toc}{\contentsline {subsection}{\numberline {5.1}Models}{15}{subsection.5.1}}
\@writefile{toc}{\contentsline {subsection}{\numberline {5.2}Bigram-adjusted model summary}{15}{subsection.5.2}}
\@writefile{toc}{\contentsline {subsection}{\numberline {5.3}Example Review 1}{15}{subsection.5.3}}
\@writefile{lot}{\contentsline {table}{\numberline {6}{\ignorespaces \relax }}{16}{table.caption.9}}
\newlabel{}{{6}{16}{\relax }{table.caption.9}{}}
\@writefile{toc}{\contentsline {subsection}{\numberline {5.4}Example Review 2}{16}{subsection.5.4}}
\@writefile{lot}{\contentsline {table}{\numberline {7}{\ignorespaces \relax }}{17}{table.caption.10}}
\newlabel{}{{7}{17}{\relax }{table.caption.10}{}}
