<?xml version="1.0" encoding="UTF-8"?>
<svg xmlns="http://www.w3.org/2000/svg" xmlns:xlink="http://www.w3.org/1999/xlink" width="504pt" height="504pt" viewBox="0 0 504 504" version="1.1">
<defs>
<g>
<symbol overflow="visible" id="glyph0-0">
<path style="stroke:none;" d=""/>
</symbol>
<symbol overflow="visible" id="glyph0-1">
<path style="stroke:none;" d="M 3.90625 -0.140625 L 3.90625 -0.515625 C 2.796875 -0.5625 2.734375 -0.578125 2.734375 -1.453125 L 2.734375 -6.78125 C 2.734375 -7.65625 2.765625 -7.671875 3.90625 -7.71875 L 3.90625 -8.25 L 0.078125 -8.25 L 0.078125 -7.71875 C 1.234375 -7.65625 1.234375 -7.671875 1.234375 -6.78125 L 1.234375 -1.453125 C 1.234375 -0.546875 1.21875 -0.5625 0.078125 -0.515625 L 0.078125 0 L 3.90625 0 Z M 3.90625 -0.140625 "/>
</symbol>
<symbol overflow="visible" id="glyph0-2">
<path style="stroke:none;" d="M 7.6875 -1.609375 L 7.375 -1.921875 C 6.390625 -0.96875 5.703125 -0.65625 4.703125 -0.65625 C 3.984375 -0.65625 3.4375 -0.828125 2.921875 -1.25 C 2.21875 -1.84375 1.859375 -2.8125 1.859375 -4.203125 C 1.859375 -6.375 2.84375 -7.625 4.578125 -7.625 C 5.28125 -7.625 5.78125 -7.421875 6.265625 -6.9375 C 6.640625 -6.546875 6.796875 -6.328125 7.0625 -5.40625 L 7.578125 -5.40625 L 7.453125 -8.40625 L 6.984375 -8.40625 C 6.859375 -8 6.8125 -8.015625 6.59375 -8.015625 C 6.46875 -8.015625 6.296875 -8.046875 6.109375 -8.125 C 5.515625 -8.3125 4.9375 -8.40625 4.34375 -8.40625 C 3.421875 -8.40625 2.359375 -8.015625 1.625 -7.421875 C 0.71875 -6.65625 0.1875 -5.40625 0.1875 -4.046875 C 0.1875 -1.609375 1.9375 0.171875 4.3125 0.171875 C 5.671875 0.171875 6.953125 -0.421875 7.78125 -1.515625 Z M 7.6875 -1.609375 "/>
</symbol>
<symbol overflow="visible" id="glyph0-3">
<path style="stroke:none;" d="M 7.171875 -2.390625 L 6.796875 -2.390625 C 6.546875 -1.8125 6.421875 -1.640625 6.25 -1.453125 C 5.828125 -0.953125 5.28125 -0.765625 4.25 -0.765625 L 3.4375 -0.765625 C 2.5625 -0.765625 2.546875 -0.6875 2.546875 -1.109375 L 2.546875 -6.78125 C 2.546875 -7.625 2.578125 -7.65625 3.65625 -7.71875 L 3.65625 -8.25 L 0 -8.25 L 0 -7.71875 C 1.03125 -7.640625 1.046875 -7.625 1.046875 -6.78125 L 1.046875 -1.453125 C 1.046875 -0.59375 1.015625 -0.59375 0 -0.515625 L 0 0 L 6.703125 0 L 7.34375 -2.390625 Z M 7.171875 -2.390625 "/>
</symbol>
<symbol overflow="visible" id="glyph0-4">
<path style="stroke:none;" d="M 8.59375 -7.859375 L 8.59375 -8.25 L 5.53125 -8.25 L 5.53125 -7.71875 C 6.609375 -7.640625 6.65625 -7.53125 6.65625 -6.328125 L 6.65625 -3.078125 C 6.65625 -2.265625 6.609375 -1.921875 6.421875 -1.5625 C 6.09375 -0.984375 5.4375 -0.65625 4.53125 -0.65625 C 3.6875 -0.65625 3.1875 -0.90625 2.875 -1.46875 C 2.65625 -1.84375 2.609375 -2.1875 2.609375 -2.9375 L 2.609375 -6.78125 C 2.609375 -7.640625 2.609375 -7.625 3.703125 -7.734375 L 3.703125 -8.25 L 0.03125 -8.25 L 0.03125 -7.71875 C 1.109375 -7.640625 1.109375 -7.65625 1.109375 -6.78125 L 1.109375 -3.03125 C 1.109375 -0.953125 2.21875 0.171875 4.265625 0.171875 C 5.5625 0.171875 6.5625 -0.28125 7.03125 -1.109375 C 7.3125 -1.609375 7.46875 -2.265625 7.46875 -3.1875 L 7.46875 -6.328125 C 7.46875 -7.546875 7.46875 -7.59375 8.59375 -7.734375 Z M 8.59375 -7.859375 "/>
</symbol>
<symbol overflow="visible" id="glyph0-5">
<path style="stroke:none;" d="M 5.765625 -2.953125 C 5.765625 -4.53125 4.53125 -5.8125 3 -5.8125 C 1.4375 -5.8125 0.203125 -4.515625 0.203125 -2.859375 C 0.203125 -1.234375 1.46875 0.125 2.96875 0.125 C 4.484375 0.125 5.765625 -1.296875 5.765625 -2.953125 Z M 4.421875 -2.53125 C 4.421875 -1.171875 4.015625 -0.515625 3.125 -0.515625 C 2.65625 -0.515625 2.296875 -0.75 2.046875 -1.234375 C 1.71875 -1.859375 1.5625 -2.59375 1.5625 -3.4375 C 1.5625 -4.578125 1.984375 -5.1875 2.84375 -5.1875 C 3.859375 -5.1875 4.421875 -4.171875 4.421875 -2.53125 Z M 4.421875 -2.53125 "/>
</symbol>
<symbol overflow="visible" id="glyph0-6">
<path style="stroke:none;" d="M 8.046875 -0.140625 L 8.046875 -0.515625 C 7.453125 -0.5625 7.3125 -0.640625 6.953125 -1.046875 L 4.640625 -3.875 C 5.203125 -3.984375 5.65625 -4.15625 6.046875 -4.484375 C 6.4375 -4.796875 6.703125 -5.40625 6.703125 -5.96875 C 6.703125 -6.484375 6.5 -7.046875 6.1875 -7.390625 C 5.734375 -7.890625 4.640625 -8.25 3.515625 -8.25 L 0.0625 -8.25 L 0.0625 -7.734375 C 1.109375 -7.625 1.078125 -7.625 1.078125 -6.78125 L 1.078125 -1.578125 C 1.078125 -0.59375 1.109375 -0.59375 0.0625 -0.515625 L 0.0625 0 L 3.65625 0 L 3.65625 -0.515625 C 2.609375 -0.59375 2.578125 -0.59375 2.578125 -1.453125 L 2.578125 -3.671875 L 3.0625 -3.6875 L 5.90625 0 L 8.046875 0 Z M 5.109375 -6 C 5.109375 -5.40625 4.890625 -5 4.46875 -4.78125 C 3.90625 -4.46875 3.59375 -4.4375 2.578125 -4.421875 L 2.578125 -7.21875 C 2.578125 -7.546875 2.578125 -7.5 3.0625 -7.5 C 4.5625 -7.5 5.109375 -7.125 5.109375 -6 Z M 5.109375 -6 "/>
</symbol>
<symbol overflow="visible" id="glyph0-7">
<path style="stroke:none;" d="M 7.15625 -2.328125 L 6.75 -2.328125 C 6.078125 -0.875 5.71875 -0.75 4 -0.75 L 3.671875 -0.75 C 3.09375 -0.75 2.71875 -0.75 2.609375 -0.828125 C 2.53125 -0.875 2.546875 -0.875 2.546875 -1.109375 L 2.546875 -3.921875 L 4.265625 -3.921875 C 5.25 -3.921875 5.28125 -3.90625 5.453125 -2.765625 L 5.984375 -2.765625 L 5.984375 -5.859375 L 5.453125 -5.859375 C 5.28125 -4.71875 5.234375 -4.71875 4.265625 -4.71875 L 2.546875 -4.71875 L 2.546875 -7.21875 C 2.546875 -7.5625 2.484375 -7.484375 2.8125 -7.484375 L 4.421875 -7.484375 C 5.78125 -7.484375 5.90625 -7.453125 6.125 -6.234375 L 6.6875 -6.234375 L 6.640625 -8.25 L 0 -8.25 L 0 -7.71875 C 1.03125 -7.640625 1.046875 -7.625 1.046875 -6.78125 L 1.046875 -1.453125 C 1.046875 -0.59375 1.015625 -0.59375 0 -0.515625 L 0 0 L 6.71875 0 L 7.328125 -2.328125 Z M 7.15625 -2.328125 "/>
</symbol>
<symbol overflow="visible" id="glyph0-8">
<path style="stroke:none;" d="M 8.5625 -0.140625 L 8.5625 -0.515625 C 7.53125 -0.59375 7.5 -0.59375 7.5 -1.453125 L 7.5 -6.78125 C 7.5 -7.640625 7.5 -7.625 8.5625 -7.734375 L 8.5625 -8.25 L 4.9375 -8.25 L 4.9375 -7.734375 C 6.015625 -7.625 6 -7.640625 6 -6.78125 L 6 -4.609375 L 2.640625 -4.609375 L 2.640625 -6.78125 C 2.640625 -7.640625 2.640625 -7.625 3.703125 -7.734375 L 3.703125 -8.25 L 0.078125 -8.25 L 0.078125 -7.734375 C 1.15625 -7.625 1.140625 -7.640625 1.140625 -6.78125 L 1.140625 -1.578125 C 1.140625 -0.578125 1.15625 -0.59375 0.078125 -0.515625 L 0.078125 0 L 3.703125 0 L 3.703125 -0.515625 C 2.65625 -0.59375 2.640625 -0.59375 2.640625 -1.453125 L 2.640625 -3.78125 L 6 -3.78125 L 6 -1.578125 C 6 -0.578125 6.03125 -0.59375 4.9375 -0.515625 L 4.9375 0 L 8.5625 0 Z M 8.5625 -0.140625 "/>
</symbol>
<symbol overflow="visible" id="glyph0-9">
<path style="stroke:none;" d="M 7.15625 -2.40625 L 6.796875 -2.40625 C 6.546875 -1.578125 6.453125 -1.4375 6.21875 -1.171875 C 5.921875 -0.875 5.515625 -0.75 4.828125 -0.75 L 2.015625 -0.75 L 7.0625 -7.859375 L 7.0625 -8.25 L 0.484375 -8.25 L 0.21875 -5.890625 L 0.796875 -5.890625 C 0.921875 -6.625 0.984375 -6.75 1.1875 -7.015625 C 1.46875 -7.359375 1.90625 -7.484375 2.703125 -7.484375 L 5.0625 -7.484375 L -0.03125 -0.375 L -0.03125 0 L 6.984375 0 L 7.3125 -2.40625 Z M 7.15625 -2.40625 "/>
</symbol>
<symbol overflow="visible" id="glyph0-10">
<path style="stroke:none;" d="M 6.03125 -2.15625 C 6.03125 -3.15625 5.328125 -4.03125 3.75 -4.890625 C 2.484375 -5.578125 2.015625 -6 2.015625 -6.65625 C 2.015625 -7.3125 2.390625 -7.625 3.125 -7.625 C 3.671875 -7.625 4.0625 -7.421875 4.484375 -7 C 4.859375 -6.609375 4.984375 -6.40625 5.21875 -5.5625 L 5.765625 -5.5625 L 5.484375 -8.40625 L 4.984375 -8.40625 C 4.921875 -7.984375 4.9375 -8 4.734375 -8 C 4.609375 -8 4.421875 -8.046875 4.203125 -8.140625 C 3.75 -8.3125 3.328125 -8.40625 2.90625 -8.40625 C 2.4375 -8.40625 1.828125 -8.171875 1.4375 -7.859375 C 0.96875 -7.46875 0.703125 -6.859375 0.703125 -6.1875 C 0.703125 -5.25 1.265625 -4.46875 2.609375 -3.75 C 3.484375 -3.28125 4.109375 -2.8125 4.40625 -2.359375 C 4.515625 -2.1875 4.53125 -2.046875 4.53125 -1.75 C 4.53125 -0.953125 4.078125 -0.5625 3.203125 -0.5625 C 2.125 -0.5625 1.515625 -1.0625 0.859375 -2.6875 L 0.34375 -2.6875 L 0.75 0.15625 L 1.25 0.15625 C 1.265625 -0.21875 1.28125 -0.234375 1.46875 -0.234375 C 1.59375 -0.234375 1.796875 -0.1875 2.03125 -0.109375 C 2.484375 0.078125 2.96875 0.171875 3.4375 0.171875 C 4.84375 0.171875 6.03125 -0.921875 6.03125 -2.15625 Z M 6.03125 -2.15625 "/>
</symbol>
<symbol overflow="visible" id="glyph0-11">
<path style="stroke:none;" d="M 6.6875 -6.375 L 6.640625 -8.25 L 0 -8.25 L 0 -7.71875 C 1.03125 -7.640625 1.046875 -7.625 1.046875 -6.78125 L 1.046875 -1.578125 C 1.046875 -0.59375 1.0625 -0.59375 0 -0.515625 L 0 0 L 3.640625 0 L 3.640625 -0.515625 C 2.578125 -0.578125 2.546875 -0.59375 2.546875 -1.453125 L 2.546875 -3.921875 L 4.15625 -3.921875 C 5.125 -3.921875 5.1875 -3.890625 5.359375 -2.765625 L 5.875 -2.765625 L 5.875 -5.859375 L 5.359375 -5.859375 C 5.1875 -4.734375 5.109375 -4.71875 4.15625 -4.71875 L 2.546875 -4.71875 L 2.546875 -7.21875 C 2.546875 -7.5625 2.46875 -7.484375 2.796875 -7.484375 L 4.421875 -7.484375 C 5.78125 -7.484375 5.90625 -7.453125 6.125 -6.234375 L 6.6875 -6.234375 Z M 6.6875 -6.375 "/>
</symbol>
<symbol overflow="visible" id="glyph0-12">
<path style="stroke:none;" d="M 8.609375 -0.140625 L 8.609375 -0.515625 C 7.9375 -0.5625 7.9375 -0.53125 7.53125 -1.421875 L 4.46875 -8.390625 L 4.078125 -8.390625 L 1.53125 -2.34375 C 0.75 -0.59375 0.75 -0.5625 0.03125 -0.515625 L 0.03125 0 L 2.6875 0 L 2.6875 -0.53125 C 1.984375 -0.53125 1.875 -0.53125 1.875 -0.859375 C 1.875 -1.015625 1.90625 -1.171875 1.96875 -1.328125 L 2.453125 -2.59375 L 5.453125 -2.59375 L 5.875 -1.578125 C 6.03125 -1.25 6.109375 -0.953125 6.109375 -0.765625 C 6.109375 -0.65625 6.078125 -0.640625 5.96875 -0.59375 C 5.828125 -0.5 5.84375 -0.53125 5.265625 -0.53125 L 5.265625 0 L 8.609375 0 Z M 5.359375 -3.390625 L 2.78125 -3.390625 L 4.109375 -6.53125 L 3.828125 -6.53125 L 5.15625 -3.390625 Z M 5.359375 -3.390625 "/>
</symbol>
<symbol overflow="visible" id="glyph0-13">
<path style="stroke:none;" d="M 8.609375 -7.859375 L 8.609375 -8.25 L 5.515625 -8.25 L 5.515625 -7.71875 C 6.125 -7.6875 6.1875 -7.671875 6.359375 -7.5625 C 6.59375 -7.390625 6.671875 -7.0625 6.671875 -6.328125 L 6.671875 -2.28125 L 6.90625 -2.390625 L 2.25 -8.25 L 0 -8.25 L 0 -7.71875 C 0.65625 -7.71875 0.71875 -7.65625 1.15625 -7.140625 L 1.15625 -1.90625 C 1.15625 -0.671875 1.140625 -0.59375 0 -0.515625 L 0 0 L 3.09375 0 L 3.09375 -0.515625 C 2.046875 -0.578125 1.96875 -0.703125 1.96875 -1.90625 L 1.96875 -6.609375 L 1.734375 -6.5 L 7.0625 0.125 L 7.46875 0.125 L 7.46875 -6.328125 C 7.46875 -7.046875 7.5625 -7.375 7.78125 -7.53125 C 7.953125 -7.65625 8.03125 -7.671875 8.609375 -7.734375 Z M 8.609375 -7.859375 "/>
</symbol>
<symbol overflow="visible" id="glyph0-14">
<path style="stroke:none;" d="M 5.953125 -0.140625 L 5.953125 -0.453125 C 5.234375 -0.546875 5.21875 -0.53125 5.21875 -1.109375 L 5.21875 -3.859375 C 5.21875 -4.984375 4.5625 -5.8125 3.671875 -5.8125 C 3.125 -5.8125 2.640625 -5.5625 2.0625 -5.015625 L 2.0625 -5.75 L 1.84375 -5.8125 C 1.265625 -5.609375 0.859375 -5.46875 0.046875 -5.234375 L 0.046875 -4.703125 C 0.359375 -4.84375 0.390625 -4.828125 0.515625 -4.828125 C 0.859375 -4.828125 0.8125 -4.78125 0.8125 -4.203125 L 0.8125 -1.21875 C 0.8125 -0.546875 0.828125 -0.53125 0.078125 -0.46875 L 0.078125 0 L 2.890625 0 L 2.890625 -0.46875 C 2.140625 -0.53125 2.09375 -0.515625 2.09375 -0.953125 L 2.09375 -4.25 C 2.640625 -4.75 2.8125 -4.859375 3.203125 -4.859375 C 3.796875 -4.859375 3.9375 -4.625 3.9375 -3.84375 L 3.9375 -1.328125 C 3.9375 -0.578125 3.921875 -0.53125 3.1875 -0.46875 L 3.1875 0 L 5.953125 0 Z M 5.953125 -0.140625 "/>
</symbol>
<symbol overflow="visible" id="glyph0-15">
<path style="stroke:none;" d="M 5.046875 -2.015625 L 4.734375 -2.203125 C 4.09375 -1.28125 3.765625 -1.046875 3.078125 -1.046875 C 1.984375 -1.046875 1.359375 -1.84375 1.359375 -3.234375 C 1.359375 -4.46875 1.890625 -5.171875 2.859375 -5.171875 C 3.28125 -5.171875 3.296875 -5.1875 3.421875 -4.734375 L 3.484375 -4.46875 C 3.59375 -4.125 3.953125 -3.78125 4.21875 -3.78125 C 4.53125 -3.78125 4.90625 -4.15625 4.90625 -4.421875 C 4.90625 -5.09375 3.9375 -5.8125 2.921875 -5.8125 C 2.359375 -5.8125 1.6875 -5.5625 1.203125 -5.15625 C 0.546875 -4.625 0.15625 -3.6875 0.15625 -2.6875 C 0.15625 -1.140625 1.25 0.125 2.578125 0.125 C 3.09375 0.125 3.640625 -0.078125 4.0625 -0.421875 C 4.421875 -0.703125 4.65625 -1.0625 5.109375 -1.953125 Z M 5.046875 -2.015625 "/>
</symbol>
</g>
</defs>
<g id="surface1">
<rect x="0" y="0" width="504" height="504" style="fill:rgb(100%,100%,100%);fill-opacity:1;stroke:none;"/>
<path style="fill:none;stroke-width:1.5;stroke-linecap:round;stroke-linejoin:round;stroke:rgb(66.27451%,66.27451%,66.27451%);stroke-opacity:1;stroke-miterlimit:10;" d="M 271.964844 182.9375 L 271.988281 183.023438 L 272.128906 183.601562 L 272.476562 185.058594 L 273.101562 187.65625 L 274.023438 191.5 L 275.238281 196.550781 L 276.699219 202.628906 L 278.339844 209.457031 L 280.089844 216.730469 L 281.871094 224.148438 L 283.632812 231.46875 L 285.328125 238.527344 L 286.933594 245.210938 L 288.441406 251.480469 L 289.851562 257.339844 L 291.167969 262.820312 L 292.40625 267.980469 L 293.585938 272.882812 L 294.722656 277.605469 L 295.828125 282.214844 L 296.925781 286.769531 L 297.117188 287.566406 L 298.207031 292.105469 L 299.308594 296.6875 L 300.433594 301.378906 L 301.605469 306.242188 L 302.832031 311.355469 L 304.136719 316.78125 L 305.53125 322.578125 L 307.023438 328.789062 L 308.617188 335.421875 L 310.304688 342.445312 L 312.066406 349.765625 L 313.859375 357.230469 L 315.632812 364.609375 L 317.316406 371.621094 L 318.839844 377.953125 L 320.128906 383.316406 L 321.132812 387.5 L 321.839844 390.429688 L 322.257812 392.171875 L 322.445312 392.953125 L 322.488281 393.128906 L 322.488281 393.132812 "/>
<path style="fill:none;stroke-width:1.425;stroke-linecap:round;stroke-linejoin:round;stroke:rgb(66.27451%,66.27451%,66.27451%);stroke-opacity:1;stroke-miterlimit:10;" d="M 255.386719 169.964844 L 255.273438 169.96875 L 254.546875 169.972656 L 252.773438 169.984375 L 249.734375 170.007812 L 245.464844 170.039062 L 240.21875 170.078125 L 234.371094 170.121094 L 228.316406 170.164062 L 222.367188 170.207031 L 216.730469 170.25 L 211.503906 170.285156 L 206.703125 170.320312 L 202.28125 170.355469 L 198.164062 170.382812 L 194.265625 170.414062 L 190.488281 170.441406 L 187.371094 170.460938 L 183.660156 170.488281 L 179.878906 170.515625 L 175.957031 170.546875 L 171.792969 170.578125 L 167.304688 170.609375 L 162.417969 170.644531 L 157.097656 170.683594 L 151.367188 170.726562 L 145.335938 170.769531 L 139.222656 170.8125 L 133.351562 170.855469 L 128.113281 170.894531 L 123.886719 170.925781 L 120.902344 170.949219 L 119.179688 170.960938 L 118.496094 170.964844 L 118.398438 170.964844 "/>
<path style="fill:none;stroke-width:1.125;stroke-linecap:round;stroke-linejoin:round;stroke:rgb(66.27451%,66.27451%,66.27451%);stroke-opacity:1;stroke-miterlimit:10;" d="M 280.652344 163.484375 L 280.746094 163.433594 L 281.355469 163.105469 L 282.855469 162.292969 L 285.453125 160.890625 L 289.160156 158.890625 L 293.808594 156.382812 L 299.101562 153.523438 L 304.707031 150.496094 L 310.332031 147.460938 L 315.761719 144.53125 L 320.863281 141.773438 L 325.59375 139.21875 L 329.960938 136.863281 L 334.003906 134.679688 L 337.796875 132.632812 L 341.410156 130.683594 L 344.921875 128.785156 L 347.824219 127.21875 L 351.285156 125.351562 L 354.800781 123.453125 L 358.433594 121.492188 L 362.261719 119.425781 L 366.359375 117.210938 L 370.792969 114.820312 L 375.601562 112.222656 L 380.789062 109.421875 L 386.292969 106.453125 L 391.980469 103.382812 L 397.625 100.335938 L 402.921875 97.472656 L 407.546875 94.980469 L 411.207031 93.003906 L 413.746094 91.632812 L 415.191406 90.851562 L 415.761719 90.542969 L 415.839844 90.5 "/>
<path style="fill:none;stroke-width:6;stroke-linecap:round;stroke-linejoin:round;stroke:rgb(66.27451%,66.27451%,66.27451%);stroke-opacity:1;stroke-miterlimit:10;" d="M 264.433594 182.570312 L 264.398438 182.679688 L 264.15625 183.371094 L 263.570312 185.070312 L 262.570312 187.964844 L 261.171875 192.007812 L 259.460938 196.953125 L 257.570312 202.425781 L 255.621094 208.058594 L 253.71875 213.5625 L 251.925781 218.753906 L 250.265625 223.550781 L 248.746094 227.949219 L 247.34375 232 L 246.039062 235.78125 L 244.792969 239.375 L 243.585938 242.875 L 242.898438 244.855469 L 241.703125 248.3125 L 240.488281 251.828125 L 239.222656 255.488281 L 237.878906 259.375 L 236.425781 263.578125 L 234.84375 268.15625 L 233.117188 273.148438 L 231.261719 278.519531 L 229.3125 284.15625 L 227.347656 289.835938 L 225.484375 295.226562 L 223.847656 299.953125 L 222.5625 303.675781 L 221.691406 306.195312 L 221.222656 307.550781 L 221.0625 308.011719 L 221.050781 308.046875 "/>
<path style="fill:none;stroke-width:1.65;stroke-linecap:round;stroke-linejoin:round;stroke:rgb(66.27451%,66.27451%,66.27451%);stroke-opacity:1;stroke-miterlimit:10;" d="M 414.269531 296.167969 L 414.199219 296.257812 L 413.726562 296.832031 L 412.574219 298.238281 L 410.621094 300.625 L 407.902344 303.945312 L 404.597656 307.976562 L 400.96875 312.410156 L 397.253906 316.941406 L 393.652344 321.34375 L 390.269531 325.472656 L 387.15625 329.273438 L 384.300781 332.757812 L 381.671875 335.964844 L 379.214844 338.96875 L 376.863281 341.839844 L 374.566406 344.644531 L 373.886719 345.46875 L 371.609375 348.253906 L 369.289062 351.085938 L 366.871094 354.039062 L 364.296875 357.183594 L 361.507812 360.585938 L 358.460938 364.304688 L 355.140625 368.359375 L 351.570312 372.714844 L 347.839844 377.273438 L 344.109375 381.824219 L 340.613281 386.097656 L 337.605469 389.765625 L 335.3125 392.566406 L 333.828125 394.378906 L 333.097656 395.269531 L 332.902344 395.507812 L 332.898438 395.515625 "/>
<path style="fill:none;stroke-width:0.9;stroke-linecap:round;stroke-linejoin:round;stroke:rgb(66.27451%,66.27451%,66.27451%);stroke-opacity:1;stroke-miterlimit:10;" d="M 423.027344 272.332031 L 423.03125 272.230469 L 423.042969 271.578125 L 423.070312 269.957031 L 423.121094 267.113281 L 423.195312 262.984375 L 423.292969 257.707031 L 423.402344 251.554688 L 423.523438 244.875 L 423.644531 238.011719 L 423.769531 231.238281 L 423.882812 224.757812 L 423.992188 218.664062 L 424.09375 213.003906 L 424.191406 207.753906 L 424.277344 202.859375 L 424.359375 198.253906 L 424.441406 193.851562 L 424.515625 189.574219 L 424.59375 185.351562 L 424.597656 185.042969 L 424.671875 180.839844 L 424.75 176.582031 L 424.828125 172.199219 L 424.910156 167.609375 L 425 162.734375 L 425.09375 157.503906 L 425.195312 151.855469 L 425.304688 145.777344 L 425.421875 139.292969 L 425.542969 132.496094 L 425.667969 125.574219 L 425.789062 118.792969 L 425.902344 112.488281 L 426 107.011719 L 426.078125 102.660156 L 426.132812 99.582031 L 426.167969 97.757812 L 426.179688 96.960938 L 426.183594 96.796875 "/>
<path style="fill:none;stroke-width:6.45;stroke-linecap:round;stroke-linejoin:round;stroke:rgb(66.27451%,66.27451%,66.27451%);stroke-opacity:1;stroke-miterlimit:10;" d="M 409.523438 287.9375 L 409.425781 287.953125 L 408.792969 288.058594 L 407.21875 288.316406 L 404.441406 288.769531 L 400.402344 289.429688 L 395.199219 290.277344 L 389.097656 291.277344 L 382.421875 292.367188 L 375.515625 293.496094 L 368.652344 294.617188 L 362.046875 295.699219 L 355.808594 296.71875 L 349.992188 297.667969 L 344.589844 298.550781 L 339.5625 299.375 L 334.835938 300.148438 L 330.339844 300.882812 L 325.996094 301.59375 L 321.726562 302.289062 L 319.722656 302.617188 L 315.484375 303.308594 L 311.195312 304.011719 L 306.789062 304.730469 L 302.183594 305.484375 L 297.300781 306.28125 L 292.074219 307.136719 L 286.441406 308.058594 L 280.382812 309.046875 L 273.914062 310.105469 L 267.117188 311.21875 L 260.148438 312.355469 L 253.253906 313.484375 L 246.746094 314.546875 L 240.96875 315.492188 L 236.226562 316.265625 L 232.71875 316.839844 L 230.472656 317.207031 L 229.335938 317.394531 L 228.992188 317.449219 L 228.972656 317.453125 "/>
<path style="fill:none;stroke-width:1.5;stroke-linecap:round;stroke-linejoin:round;stroke:rgb(66.27451%,66.27451%,66.27451%);stroke-opacity:1;stroke-miterlimit:10;" d="M 322.152344 391.730469 L 322.128906 391.644531 L 321.992188 391.066406 L 321.640625 389.609375 L 321.019531 387.011719 L 320.09375 383.167969 L 318.878906 378.117188 L 317.417969 372.039062 L 315.777344 365.210938 L 314.03125 357.9375 L 312.246094 350.519531 L 310.488281 343.199219 L 308.789062 336.140625 L 307.183594 329.457031 L 305.675781 323.1875 L 304.269531 317.328125 L 302.949219 311.847656 L 301.710938 306.6875 L 300.53125 301.785156 L 299.398438 297.0625 L 298.289062 292.453125 L 297.195312 287.898438 L 297.003906 287.101562 L 295.914062 282.5625 L 294.8125 277.980469 L 293.683594 273.289062 L 292.515625 268.425781 L 291.285156 263.3125 L 289.980469 257.886719 L 288.589844 252.089844 L 287.09375 245.878906 L 285.5 239.246094 L 283.8125 232.222656 L 282.054688 224.902344 L 280.257812 217.4375 L 278.484375 210.058594 L 276.800781 203.046875 L 275.277344 196.714844 L 273.988281 191.351562 L 272.984375 187.167969 L 272.28125 184.238281 L 271.859375 182.496094 L 271.671875 181.714844 L 271.628906 181.539062 L 271.628906 181.535156 "/>
<path style="fill:none;stroke-width:1.65;stroke-linecap:round;stroke-linejoin:round;stroke:rgb(66.27451%,66.27451%,66.27451%);stroke-opacity:1;stroke-miterlimit:10;" d="M 333.808594 394.402344 L 333.882812 394.3125 L 334.355469 393.738281 L 335.503906 392.332031 L 337.460938 389.945312 L 340.179688 386.625 L 343.480469 382.59375 L 347.113281 378.160156 L 350.824219 373.628906 L 354.429688 369.226562 L 357.8125 365.097656 L 360.925781 361.296875 L 363.777344 357.8125 L 366.40625 354.601562 L 368.867188 351.601562 L 371.21875 348.730469 L 373.515625 345.925781 L 374.191406 345.097656 L 376.472656 342.316406 L 378.792969 339.484375 L 381.210938 336.53125 L 383.785156 333.386719 L 386.574219 329.984375 L 389.617188 326.265625 L 392.9375 322.210938 L 396.507812 317.851562 L 403.96875 308.742188 L 407.46875 304.472656 L 410.472656 300.804688 L 412.769531 298 L 414.25 296.191406 L 414.980469 295.300781 L 415.179688 295.058594 L 415.183594 295.054688 "/>
<path style="fill:none;stroke-width:1.2;stroke-linecap:round;stroke-linejoin:round;stroke:rgb(66.27451%,66.27451%,66.27451%);stroke-opacity:1;stroke-miterlimit:10;" d="M 314.746094 396.472656 L 314.648438 396.394531 L 314.03125 395.90625 L 312.542969 394.730469 L 310.050781 392.765625 L 306.664062 390.089844 L 302.664062 386.929688 L 298.386719 383.550781 L 294.132812 380.195312 L 290.101562 377.011719 L 286.386719 374.078125 L 283.003906 371.40625 L 279.914062 368.964844 L 277.042969 366.699219 L 274.3125 364.542969 L 271.648438 362.4375 L 271.023438 361.945312 L 268.382812 359.859375 L 265.683594 357.730469 L 262.855469 355.496094 L 259.820312 353.097656 L 256.5 350.476562 L 252.851562 347.59375 L 248.863281 344.449219 L 244.613281 341.089844 L 240.257812 337.652344 L 236.078125 334.351562 L 232.402344 331.449219 L 229.550781 329.195312 L 227.695312 327.730469 L 226.789062 327.015625 L 226.554688 326.828125 L 226.546875 326.824219 "/>
<path style="fill:none;stroke-width:1.425;stroke-linecap:round;stroke-linejoin:round;stroke:rgb(66.27451%,66.27451%,66.27451%);stroke-opacity:1;stroke-miterlimit:10;" d="M 119.839844 170.957031 L 119.953125 170.957031 L 120.675781 170.949219 L 122.453125 170.9375 L 125.492188 170.914062 L 129.761719 170.882812 L 135.007812 170.84375 L 140.851562 170.800781 L 146.910156 170.757812 L 152.855469 170.714844 L 158.492188 170.671875 L 163.71875 170.636719 L 168.523438 170.601562 L 172.945312 170.566406 L 177.0625 170.539062 L 180.960938 170.507812 L 184.738281 170.480469 L 187.851562 170.460938 L 191.566406 170.433594 L 195.34375 170.40625 L 199.269531 170.375 L 203.433594 170.34375 L 207.921875 170.3125 L 212.808594 170.277344 L 218.128906 170.238281 L 223.855469 170.195312 L 229.886719 170.152344 L 236.003906 170.109375 L 241.875 170.066406 L 247.109375 170.027344 L 251.339844 169.996094 L 254.324219 169.972656 L 256.042969 169.960938 L 256.730469 169.957031 L 256.824219 169.957031 "/>
<path style="fill:none;stroke-width:2.85;stroke-linecap:round;stroke-linejoin:round;stroke:rgb(66.27451%,66.27451%,66.27451%);stroke-opacity:1;stroke-miterlimit:10;" d="M 114.441406 181.824219 L 114.503906 181.90625 L 114.910156 182.453125 L 115.914062 183.800781 L 117.664062 186.140625 L 120.167969 189.5 L 123.332031 193.734375 L 126.957031 198.59375 L 130.824219 203.773438 L 134.734375 209.011719 L 138.53125 214.097656 L 142.117188 218.902344 L 145.453125 223.371094 L 148.539062 227.503906 L 151.394531 231.332031 L 154.066406 234.910156 L 156.601562 238.304688 L 159.054688 241.589844 L 161.46875 244.820312 L 161.910156 245.414062 L 164.308594 248.625 L 166.742188 251.886719 L 169.253906 255.253906 L 171.898438 258.792969 L 174.71875 262.574219 L 177.765625 266.65625 L 181.066406 271.078125 L 184.625 275.84375 L 188.40625 280.910156 L 192.335938 286.171875 L 196.265625 291.441406 L 200.011719 296.453125 L 203.34375 300.921875 L 206.066406 304.566406 L 208.042969 307.21875 L 209.257812 308.84375 L 209.820312 309.59375 L 209.949219 309.769531 L 209.953125 309.773438 "/>
<path style="fill:none;stroke-width:1.125;stroke-linecap:round;stroke-linejoin:round;stroke:rgb(66.27451%,66.27451%,66.27451%);stroke-opacity:1;stroke-miterlimit:10;" d="M 414.574219 91.183594 L 414.480469 91.234375 L 413.871094 91.5625 L 412.371094 92.375 L 409.773438 93.777344 L 406.066406 95.777344 L 401.417969 98.285156 L 396.125 101.144531 L 390.519531 104.171875 L 384.894531 107.207031 L 379.464844 110.136719 L 374.363281 112.894531 L 369.632812 115.449219 L 365.265625 117.804688 L 361.222656 119.988281 L 357.429688 122.035156 L 353.816406 123.984375 L 350.304688 125.882812 L 347.402344 127.449219 L 343.941406 129.316406 L 340.425781 131.214844 L 336.792969 133.175781 L 332.964844 135.242188 L 328.863281 137.457031 L 324.429688 139.847656 L 319.621094 142.445312 L 314.4375 145.246094 L 308.933594 148.214844 L 303.246094 151.285156 L 297.601562 154.332031 L 292.300781 157.195312 L 287.679688 159.6875 L 284.019531 161.664062 L 281.480469 163.035156 L 280.035156 163.816406 L 279.464844 164.125 L 279.386719 164.167969 "/>
<path style="fill:none;stroke-width:0.9;stroke-linecap:round;stroke-linejoin:round;stroke:rgb(66.27451%,66.27451%,66.27451%);stroke-opacity:1;stroke-miterlimit:10;" d="M 426.160156 98.238281 L 426.15625 98.339844 L 426.144531 98.988281 L 426.117188 100.613281 L 426.066406 103.457031 L 425.992188 107.585938 L 425.894531 112.863281 L 425.785156 119.015625 L 425.664062 125.695312 L 425.542969 132.558594 L 425.417969 139.328125 L 425.304688 145.8125 L 425.195312 151.902344 L 425.09375 157.566406 L 424.996094 162.816406 L 424.910156 167.710938 L 424.828125 172.316406 L 424.746094 176.71875 L 424.671875 180.996094 L 424.59375 185.21875 L 424.589844 185.523438 L 424.515625 189.730469 L 424.4375 193.988281 L 424.359375 198.371094 L 424.277344 202.960938 L 424.1875 207.835938 L 424.09375 213.066406 L 423.992188 218.710938 L 423.882812 224.792969 L 423.765625 231.277344 L 423.644531 238.074219 L 423.519531 244.996094 L 423.398438 251.777344 L 423.285156 258.082031 L 423.1875 263.554688 L 423.109375 267.910156 L 423.054688 270.988281 L 423.019531 272.8125 L 423.007812 273.609375 L 423.003906 273.769531 "/>
<path style="fill:none;stroke-width:6;stroke-linecap:round;stroke-linejoin:round;stroke:rgb(66.27451%,66.27451%,66.27451%);stroke-opacity:1;stroke-miterlimit:10;" d="M 221.523438 306.6875 L 221.558594 306.578125 L 221.800781 305.882812 L 222.386719 304.1875 L 223.386719 301.292969 L 224.785156 297.246094 L 226.496094 292.304688 L 228.386719 286.832031 L 230.335938 281.195312 L 232.238281 275.691406 L 234.03125 270.503906 L 235.691406 265.707031 L 237.210938 261.308594 L 238.613281 257.257812 L 239.917969 253.476562 L 241.160156 249.882812 L 242.371094 246.382812 L 243.054688 244.402344 L 244.25 240.945312 L 245.46875 237.429688 L 246.734375 233.769531 L 248.078125 229.878906 L 249.53125 225.679688 L 251.113281 221.097656 L 252.839844 216.105469 L 254.695312 210.734375 L 256.644531 205.097656 L 258.609375 199.421875 L 260.472656 194.03125 L 262.105469 189.300781 L 263.394531 185.582031 L 264.265625 183.058594 L 264.734375 181.703125 L 264.890625 181.246094 L 264.90625 181.210938 "/>
<path style="fill:none;stroke-width:6.45;stroke-linecap:round;stroke-linejoin:round;stroke:rgb(66.27451%,66.27451%,66.27451%);stroke-opacity:1;stroke-miterlimit:10;" d="M 230.394531 317.21875 L 230.492188 317.203125 L 231.125 317.101562 L 232.699219 316.84375 L 235.476562 316.390625 L 239.515625 315.730469 L 244.71875 314.878906 L 250.820312 313.882812 L 257.492188 312.789062 L 264.402344 311.660156 L 271.261719 310.539062 L 277.871094 309.457031 L 284.109375 308.4375 L 289.925781 307.488281 L 295.328125 306.605469 L 300.355469 305.785156 L 305.082031 305.011719 L 309.578125 304.277344 L 313.921875 303.566406 L 318.191406 302.867188 L 320.195312 302.539062 L 324.433594 301.847656 L 328.71875 301.148438 L 333.128906 300.425781 L 337.734375 299.671875 L 342.617188 298.875 L 347.84375 298.019531 L 353.476562 297.101562 L 359.535156 296.109375 L 366.003906 295.050781 L 372.800781 293.941406 L 379.769531 292.800781 L 386.664062 291.675781 L 393.171875 290.609375 L 398.949219 289.667969 L 403.691406 288.890625 L 407.199219 288.316406 L 409.445312 287.949219 L 410.578125 287.765625 L 410.925781 287.707031 L 410.945312 287.707031 "/>
<path style="fill:none;stroke-width:1.2;stroke-linecap:round;stroke-linejoin:round;stroke:rgb(66.27451%,66.27451%,66.27451%);stroke-opacity:1;stroke-miterlimit:10;" d="M 227.679688 327.71875 L 227.773438 327.792969 L 228.394531 328.28125 L 229.882812 329.457031 L 232.371094 331.425781 L 235.757812 334.097656 L 239.761719 337.257812 L 244.039062 340.636719 L 248.289062 343.996094 L 252.320312 347.175781 L 256.035156 350.109375 L 259.417969 352.78125 L 262.511719 355.222656 L 265.382812 357.492188 L 268.109375 359.644531 L 270.773438 361.75 L 271.398438 362.242188 L 274.039062 364.328125 L 276.738281 366.457031 L 279.566406 368.691406 L 282.605469 371.089844 L 285.921875 373.710938 L 289.574219 376.59375 L 293.558594 379.742188 L 297.8125 383.097656 L 302.164062 386.535156 L 306.347656 389.839844 L 310.019531 392.738281 L 312.871094 394.992188 L 314.726562 396.457031 L 315.636719 397.175781 L 315.871094 397.359375 L 315.875 397.363281 "/>
<path style="fill:none;stroke-width:2.85;stroke-linecap:round;stroke-linejoin:round;stroke:rgb(66.27451%,66.27451%,66.27451%);stroke-opacity:1;stroke-miterlimit:10;" d="M 209.089844 308.617188 L 209.027344 308.535156 L 208.621094 307.988281 L 207.617188 306.644531 L 205.867188 304.300781 L 203.359375 300.941406 L 200.199219 296.707031 L 196.574219 291.851562 L 192.703125 286.667969 L 188.796875 281.429688 L 185 276.347656 L 181.410156 271.539062 L 178.074219 267.070312 L 174.992188 262.9375 L 172.132812 259.113281 L 169.464844 255.535156 L 166.929688 252.136719 L 164.476562 248.855469 L 162.0625 245.621094 L 161.621094 245.027344 L 159.222656 241.816406 L 156.789062 238.554688 L 154.277344 235.1875 L 151.632812 231.648438 L 148.8125 227.867188 L 145.765625 223.785156 L 142.464844 219.367188 L 138.90625 214.601562 L 135.125 209.53125 L 131.195312 204.269531 L 127.261719 199.003906 L 123.519531 193.988281 L 120.183594 189.519531 L 117.464844 185.875 L 115.484375 183.226562 L 114.269531 181.597656 L 113.710938 180.847656 L 113.578125 180.671875 "/>
<path style="fill-rule:nonzero;fill:rgb(66.27451%,66.27451%,66.27451%);fill-opacity:1;stroke-width:0.75;stroke-linecap:round;stroke-linejoin:round;stroke:rgb(66.27451%,66.27451%,66.27451%);stroke-opacity:1;stroke-miterlimit:10;" d="M 314.851562 380.15625 L 315.703125 381.050781 L 316.574219 382.035156 L 317.472656 383.140625 L 318.414062 384.414062 L 319.417969 385.953125 L 320.546875 388 L 322.417969 393.148438 L 322.558594 393.117188 L 321.886719 387.679688 L 321.960938 385.34375 L 322.15625 383.515625 L 322.414062 381.953125 L 322.714844 380.5625 L 323.042969 379.289062 L 323.394531 378.105469 Z M 314.851562 380.15625 "/>
<path style="fill-rule:nonzero;fill:rgb(66.27451%,66.27451%,66.27451%);fill-opacity:1;stroke-width:0.75;stroke-linecap:round;stroke-linejoin:round;stroke:rgb(66.27451%,66.27451%,66.27451%);stroke-opacity:1;stroke-miterlimit:10;" d="M 132.765625 166.46875 L 131.703125 167.09375 L 130.546875 167.71875 L 129.265625 168.347656 L 127.8125 168.972656 L 126.085938 169.605469 L 123.835938 170.238281 L 118.398438 170.894531 L 118.398438 171.039062 L 123.847656 171.617188 L 126.105469 172.214844 L 127.839844 172.820312 L 129.304688 173.425781 L 130.59375 174.035156 L 131.757812 174.644531 L 132.832031 175.253906 Z M 132.765625 166.46875 "/>
<path style="fill-rule:nonzero;fill:rgb(66.27451%,66.27451%,66.27451%);fill-opacity:1;stroke-width:0.75;stroke-linecap:round;stroke-linejoin:round;stroke:rgb(66.27451%,66.27451%,66.27451%);stroke-opacity:1;stroke-miterlimit:10;" d="M 405.253906 101.207031 L 405.902344 100.15625 L 406.632812 99.0625 L 407.46875 97.90625 L 408.457031 96.671875 L 409.6875 95.308594 L 411.378906 93.691406 L 415.875 90.5625 L 415.804688 90.4375 L 410.722656 92.480469 L 408.445312 93.007812 L 406.632812 93.285156 L 405.054688 93.4375 L 403.632812 93.503906 L 402.316406 93.511719 L 401.082031 93.476562 Z M 405.253906 101.207031 "/>
<path style="fill-rule:nonzero;fill:rgb(66.27451%,66.27451%,66.27451%);fill-opacity:1;stroke-width:0.75;stroke-linecap:round;stroke-linejoin:round;stroke:rgb(66.27451%,66.27451%,66.27451%);stroke-opacity:1;stroke-miterlimit:10;" d="M 221.605469 293.003906 L 221.839844 294.214844 L 222.042969 295.511719 L 222.207031 296.929688 L 222.3125 298.507812 L 222.332031 300.347656 L 222.179688 302.679688 L 220.984375 308.023438 L 221.121094 308.070312 L 223.480469 303.128906 L 224.800781 301.199219 L 225.949219 299.765625 L 227.007812 298.589844 L 228.011719 297.578125 L 228.976562 296.679688 L 229.90625 295.871094 Z M 221.605469 293.003906 "/>
<path style="fill-rule:nonzero;fill:rgb(66.27451%,66.27451%,66.27451%);fill-opacity:1;stroke-width:0.75;stroke-linecap:round;stroke-linejoin:round;stroke:rgb(66.27451%,66.27451%,66.27451%);stroke-opacity:1;stroke-miterlimit:10;" d="M 338.625 381.59375 L 338.425781 382.8125 L 338.164062 384.101562 L 337.828125 385.484375 L 337.382812 387.003906 L 336.761719 388.734375 L 335.8125 390.871094 L 332.839844 395.472656 L 332.953125 395.5625 L 336.878906 391.742188 L 338.785156 390.390625 L 340.359375 389.441406 L 341.757812 388.707031 L 343.050781 388.101562 L 344.265625 387.59375 L 345.417969 387.160156 Z M 338.625 381.59375 "/>
<path style="fill-rule:nonzero;fill:rgb(66.27451%,66.27451%,66.27451%);fill-opacity:1;stroke-width:0.75;stroke-linecap:round;stroke-linejoin:round;stroke:rgb(66.27451%,66.27451%,66.27451%);stroke-opacity:1;stroke-miterlimit:10;" d="M 430.316406 111.273438 L 429.71875 110.195312 L 429.121094 109.023438 L 428.527344 107.726562 L 427.9375 106.257812 L 427.351562 104.515625 L 426.777344 102.253906 L 426.257812 96.800781 L 426.113281 96.796875 L 425.398438 102.226562 L 424.738281 104.46875 L 424.089844 106.1875 L 423.449219 107.636719 L 422.808594 108.910156 L 422.171875 110.058594 L 421.535156 111.117188 Z M 430.316406 111.273438 "/>
<path style="fill-rule:nonzero;fill:rgb(66.27451%,66.27451%,66.27451%);fill-opacity:1;stroke-width:0.75;stroke-linecap:round;stroke-linejoin:round;stroke:rgb(66.27451%,66.27451%,66.27451%);stroke-opacity:1;stroke-miterlimit:10;" d="M 242.476562 310.792969 L 241.519531 311.578125 L 240.472656 312.371094 L 239.304688 313.1875 L 237.964844 314.035156 L 236.359375 314.921875 L 234.234375 315.894531 L 228.960938 317.382812 L 228.984375 317.523438 L 234.457031 317.253906 L 236.78125 317.5 L 238.585938 317.828125 L 240.125 318.203125 L 241.492188 318.605469 L 242.738281 319.027344 L 243.894531 319.464844 Z M 242.476562 310.792969 "/>
<path style="fill-rule:nonzero;fill:rgb(66.27451%,66.27451%,66.27451%);fill-opacity:1;stroke-width:0.75;stroke-linecap:round;stroke-linejoin:round;stroke:rgb(66.27451%,66.27451%,66.27451%);stroke-opacity:1;stroke-miterlimit:10;" d="M 279.265625 194.511719 L 278.417969 193.617188 L 277.542969 192.632812 L 276.644531 191.527344 L 275.703125 190.253906 L 274.699219 188.714844 L 273.570312 186.667969 L 271.699219 181.519531 L 271.558594 181.550781 L 272.230469 186.988281 L 272.160156 189.324219 L 271.964844 191.152344 L 271.703125 192.714844 L 271.402344 194.105469 L 271.074219 195.378906 L 270.726562 196.5625 Z M 279.265625 194.511719 "/>
<path style="fill-rule:nonzero;fill:rgb(66.27451%,66.27451%,66.27451%);fill-opacity:1;stroke-width:0.75;stroke-linecap:round;stroke-linejoin:round;stroke:rgb(66.27451%,66.27451%,66.27451%);stroke-opacity:1;stroke-miterlimit:10;" d="M 409.457031 308.976562 L 409.65625 307.757812 L 409.914062 306.46875 L 410.25 305.082031 L 410.699219 303.566406 L 411.316406 301.835938 L 412.269531 299.699219 L 415.238281 295.097656 L 415.128906 295.007812 L 411.203125 298.828125 L 409.296875 300.179688 L 407.722656 301.125 L 406.320312 301.863281 L 405.027344 302.46875 L 403.816406 302.972656 L 402.660156 303.410156 Z M 409.457031 308.976562 "/>
<path style="fill-rule:nonzero;fill:rgb(66.27451%,66.27451%,66.27451%);fill-opacity:1;stroke-width:0.75;stroke-linecap:round;stroke-linejoin:round;stroke:rgb(66.27451%,66.27451%,66.27451%);stroke-opacity:1;stroke-miterlimit:10;" d="M 240.570312 332.300781 L 239.351562 332.125 L 238.054688 331.890625 L 236.664062 331.578125 L 235.136719 331.15625 L 233.398438 330.570312 L 231.246094 329.65625 L 226.59375 326.769531 L 226.503906 326.882812 L 230.390625 330.738281 L 231.78125 332.621094 L 232.753906 334.175781 L 233.515625 335.566406 L 234.140625 336.847656 L 234.671875 338.050781 L 235.128906 339.195312 Z M 240.570312 332.300781 "/>
<path style="fill-rule:nonzero;fill:rgb(66.27451%,66.27451%,66.27451%);fill-opacity:1;stroke-width:0.75;stroke-linecap:round;stroke-linejoin:round;stroke:rgb(66.27451%,66.27451%,66.27451%);stroke-opacity:1;stroke-miterlimit:10;" d="M 242.457031 174.453125 L 243.523438 173.828125 L 244.679688 173.203125 L 245.960938 172.574219 L 247.414062 171.949219 L 249.136719 171.316406 L 251.386719 170.683594 L 256.828125 170.027344 L 256.824219 169.882812 L 251.378906 169.304688 L 249.121094 168.707031 L 247.386719 168.101562 L 245.921875 167.496094 L 244.632812 166.886719 L 243.46875 166.277344 L 242.394531 165.667969 Z M 242.457031 174.453125 "/>
<path style="fill-rule:nonzero;fill:rgb(66.27451%,66.27451%,66.27451%);fill-opacity:1;stroke-width:0.75;stroke-linecap:round;stroke-linejoin:round;stroke:rgb(66.27451%,66.27451%,66.27451%);stroke-opacity:1;stroke-miterlimit:10;" d="M 197.816406 300.859375 L 198.953125 301.347656 L 200.140625 301.910156 L 201.40625 302.570312 L 202.769531 303.367188 L 204.300781 304.386719 L 206.144531 305.824219 L 209.894531 309.816406 L 210.007812 309.730469 L 207.25 305 L 206.394531 302.824219 L 205.855469 301.066406 L 205.476562 299.53125 L 205.203125 298.128906 L 205 296.832031 L 204.855469 295.605469 Z M 197.816406 300.859375 "/>
<path style="fill-rule:nonzero;fill:rgb(66.27451%,66.27451%,66.27451%);fill-opacity:1;stroke-width:0.75;stroke-linecap:round;stroke-linejoin:round;stroke:rgb(66.27451%,66.27451%,66.27451%);stroke-opacity:1;stroke-miterlimit:10;" d="M 289.96875 153.460938 L 289.324219 154.511719 L 288.59375 155.605469 L 287.757812 156.761719 L 286.765625 157.996094 L 285.539062 159.359375 L 283.847656 160.976562 L 279.351562 164.105469 L 279.417969 164.230469 L 284.5 162.1875 L 286.777344 161.660156 L 288.59375 161.382812 L 290.171875 161.230469 L 291.59375 161.164062 L 292.910156 161.15625 L 294.144531 161.191406 Z M 289.96875 153.460938 "/>
<path style="fill-rule:nonzero;fill:rgb(66.27451%,66.27451%,66.27451%);fill-opacity:1;stroke-width:0.75;stroke-linecap:round;stroke-linejoin:round;stroke:rgb(66.27451%,66.27451%,66.27451%);stroke-opacity:1;stroke-miterlimit:10;" d="M 418.871094 259.292969 L 419.46875 260.375 L 420.066406 261.546875 L 420.660156 262.84375 L 421.25 264.3125 L 421.835938 266.050781 L 422.410156 268.316406 L 422.929688 273.769531 L 423.074219 273.773438 L 423.789062 268.34375 L 424.449219 266.097656 L 425.09375 264.378906 L 425.738281 262.933594 L 426.378906 261.660156 L 427.015625 260.507812 L 427.652344 259.453125 Z M 418.871094 259.292969 "/>
<path style="fill-rule:nonzero;fill:rgb(66.27451%,66.27451%,66.27451%);fill-opacity:1;stroke-width:0.75;stroke-linecap:round;stroke-linejoin:round;stroke:rgb(66.27451%,66.27451%,66.27451%);stroke-opacity:1;stroke-miterlimit:10;" d="M 264.351562 196.253906 L 264.117188 195.042969 L 263.914062 193.742188 L 263.75 192.328125 L 263.640625 190.746094 L 263.625 188.910156 L 263.777344 186.578125 L 264.972656 181.234375 L 264.835938 181.1875 L 262.476562 186.128906 L 261.15625 188.058594 L 260.007812 189.488281 L 258.945312 190.667969 L 257.945312 191.679688 L 256.980469 192.574219 L 256.046875 193.382812 Z M 264.351562 196.253906 "/>
<path style="fill-rule:nonzero;fill:rgb(66.27451%,66.27451%,66.27451%);fill-opacity:1;stroke-width:0.75;stroke-linecap:round;stroke-linejoin:round;stroke:rgb(66.27451%,66.27451%,66.27451%);stroke-opacity:1;stroke-miterlimit:10;" d="M 397.441406 294.363281 L 398.394531 293.582031 L 399.441406 292.785156 L 400.613281 291.96875 L 401.953125 291.125 L 403.558594 290.234375 L 405.683594 289.261719 L 410.957031 287.777344 L 410.933594 287.632812 L 405.460938 287.902344 L 403.136719 287.65625 L 401.332031 287.328125 L 399.792969 286.953125 L 398.425781 286.550781 L 397.179688 286.128906 L 396.023438 285.695312 Z M 397.441406 294.363281 "/>
<path style="fill-rule:nonzero;fill:rgb(66.27451%,66.27451%,66.27451%);fill-opacity:1;stroke-width:0.75;stroke-linecap:round;stroke-linejoin:round;stroke:rgb(66.27451%,66.27451%,66.27451%);stroke-opacity:1;stroke-miterlimit:10;" d="M 301.851562 391.886719 L 303.074219 392.0625 L 304.367188 392.300781 L 305.757812 392.609375 L 307.285156 393.03125 L 309.023438 393.617188 L 311.175781 394.53125 L 315.832031 397.417969 L 315.917969 397.308594 L 312.03125 393.449219 L 310.644531 391.566406 L 309.667969 390.011719 L 308.90625 388.625 L 308.28125 387.34375 L 307.75 386.136719 L 307.296875 384.992188 Z M 301.851562 391.886719 "/>
<path style="fill-rule:nonzero;fill:rgb(66.27451%,66.27451%,66.27451%);fill-opacity:1;stroke-width:0.75;stroke-linecap:round;stroke-linejoin:round;stroke:rgb(66.27451%,66.27451%,66.27451%);stroke-opacity:1;stroke-miterlimit:10;" d="M 125.710938 189.582031 L 124.578125 189.09375 L 123.390625 188.535156 L 122.125 187.875 L 120.757812 187.074219 L 119.230469 186.058594 L 117.386719 184.621094 L 113.636719 180.628906 L 113.519531 180.714844 L 116.28125 185.445312 L 117.136719 187.621094 L 117.675781 189.375 L 118.054688 190.914062 L 118.328125 192.3125 L 118.527344 193.613281 L 118.671875 194.835938 Z M 125.710938 189.582031 "/>
<path style="fill-rule:nonzero;fill:rgb(0%,0%,100%);fill-opacity:1;stroke-width:0.75;stroke-linecap:round;stroke-linejoin:round;stroke:rgb(0%,0%,0%);stroke-opacity:1;stroke-miterlimit:10;" d="M 280.824219 169.867188 C 280.824219 176.496094 275.453125 181.867188 268.824219 181.867188 C 262.199219 181.867188 256.824219 176.496094 256.824219 169.867188 C 256.824219 163.242188 262.199219 157.867188 268.824219 157.867188 C 275.453125 157.867188 280.824219 163.242188 280.824219 169.867188 "/>
<path style="fill-rule:nonzero;fill:rgb(0%,0%,100%);fill-opacity:1;stroke-width:0.75;stroke-linecap:round;stroke-linejoin:round;stroke:rgb(0%,0%,0%);stroke-opacity:1;stroke-miterlimit:10;" d="M 434.789062 285.769531 C 434.789062 292.398438 429.414062 297.769531 422.789062 297.769531 C 416.160156 297.769531 410.789062 292.398438 410.789062 285.769531 C 410.789062 279.140625 416.160156 273.769531 422.789062 273.769531 C 429.414062 273.769531 434.789062 279.140625 434.789062 285.769531 "/>
<path style="fill-rule:nonzero;fill:rgb(0%,100%,0%);fill-opacity:1;stroke-width:0.75;stroke-linecap:round;stroke-linejoin:round;stroke:rgb(0%,0%,0%);stroke-opacity:1;stroke-miterlimit:10;" d="M 337.292969 404.800781 C 337.292969 411.425781 331.921875 416.800781 325.292969 416.800781 C 318.664062 416.800781 313.292969 411.425781 313.292969 404.800781 C 313.292969 398.171875 318.664062 392.800781 325.292969 392.800781 C 331.921875 392.800781 337.292969 398.171875 337.292969 404.800781 "/>
<path style="fill-rule:nonzero;fill:rgb(0%,100%,0%);fill-opacity:1;stroke-width:0.75;stroke-linecap:round;stroke-linejoin:round;stroke:rgb(0%,0%,0%);stroke-opacity:1;stroke-miterlimit:10;" d="M 118.398438 171.054688 C 118.398438 177.679688 113.027344 183.054688 106.398438 183.054688 C 99.773438 183.054688 94.398438 177.679688 94.398438 171.054688 C 94.398438 164.425781 99.773438 159.054688 106.398438 159.054688 C 113.027344 159.054688 118.398438 164.425781 118.398438 171.054688 "/>
<path style="fill-rule:nonzero;fill:rgb(0%,100%,0%);fill-opacity:1;stroke-width:0.75;stroke-linecap:round;stroke-linejoin:round;stroke:rgb(0%,0%,0%);stroke-opacity:1;stroke-miterlimit:10;" d="M 438.398438 84.800781 C 438.398438 91.425781 433.027344 96.800781 426.398438 96.800781 C 419.773438 96.800781 414.398438 91.425781 414.398438 84.800781 C 414.398438 78.171875 419.773438 72.800781 426.398438 72.800781 C 433.027344 72.800781 438.398438 78.171875 438.398438 84.800781 "/>
<path style="fill-rule:nonzero;fill:rgb(100%,0%,0%);fill-opacity:1;stroke-width:0.75;stroke-linecap:round;stroke-linejoin:round;stroke:rgb(0%,0%,0%);stroke-opacity:1;stroke-miterlimit:10;" d="M 229.128906 319.386719 C 229.128906 326.015625 223.757812 331.386719 217.128906 331.386719 C 210.503906 331.386719 205.128906 326.015625 205.128906 319.386719 C 205.128906 312.761719 210.503906 307.386719 217.128906 307.386719 C 223.757812 307.386719 229.128906 312.761719 229.128906 319.386719 "/>
<g style="fill:rgb(0%,0%,0%);fill-opacity:1;">
  <use xlink:href="#glyph0-1" x="258.824219" y="173.527344"/>
  <use xlink:href="#glyph0-2" x="262.820312" y="173.527344"/>
  <use xlink:href="#glyph0-3" x="270.824219" y="173.527344"/>
</g>
<g style="fill:rgb(0%,0%,0%);fill-opacity:1;">
  <use xlink:href="#glyph0-4" x="411.289062" y="289.429688"/>
  <use xlink:href="#glyph0-5" x="419.953125" y="289.429688"/>
  <use xlink:href="#glyph0-6" x="425.953125" y="289.429688"/>
</g>
<g style="fill:rgb(0%,0%,0%);fill-opacity:1;">
  <use xlink:href="#glyph0-2" x="313.292969" y="408.460938"/>
  <use xlink:href="#glyph0-7" x="321.296875" y="408.460938"/>
  <use xlink:href="#glyph0-8" x="328.628906" y="408.460938"/>
</g>
<g style="fill:rgb(0%,0%,0%);fill-opacity:1;">
  <use xlink:href="#glyph0-9" x="95.398438" y="174.714844"/>
  <use xlink:href="#glyph0-10" x="102.730469" y="174.714844"/>
  <use xlink:href="#glyph0-3" x="109.402344" y="174.714844"/>
</g>
<g style="fill:rgb(0%,0%,0%);fill-opacity:1;">
  <use xlink:href="#glyph0-2" x="407.898438" y="88.460938"/>
  <use xlink:href="#glyph0-7" x="415.902344" y="88.460938"/>
  <use xlink:href="#glyph0-11" x="423.234375" y="88.460938"/>
  <use xlink:href="#glyph0-12" x="429.066406" y="88.460938"/>
  <use xlink:href="#glyph0-10" x="437.730469" y="88.460938"/>
</g>
<g style="fill:rgb(0%,0%,0%);fill-opacity:1;">
  <use xlink:href="#glyph0-13" x="199.628906" y="323.046875"/>
  <use xlink:href="#glyph0-5" x="208.053711" y="323.046875"/>
  <use xlink:href="#glyph0-14" x="214.053711" y="323.046875"/>
  <use xlink:href="#glyph0-12" x="220.053711" y="323.046875"/>
  <use xlink:href="#glyph0-15" x="228.358398" y="323.046875"/>
</g>
</g>
</svg>
