PWD /home/mhasoba/Documents/Teaching/IC_CMEE/2017-18/Coursework/StudentRepos/JackRowntree_JSR217/Assessment
INPUT /etc/texmf/web2c/texmf.cnf
INPUT /usr/share/texmf/web2c/texmf.cnf
INPUT /usr/share/texlive/texmf-dist/web2c/texmf.cnf
INPUT /var/lib/texmf/web2c/pdftex/pdflatex.fmt
INPUT /home/mhasoba/Documents/Teaching/IC_CMEE/2017-18/Coursework/StudentRepos/JackRowntree_JSR217/Assessment/Week3_Feedback.txt
OUTPUT Week3_Feedback.log
