\relax 
\citation{einstein1905does}
\bibstyle{plain}
\bibdata{firstbiblio}
\@writefile{toc}{\contentsline {section}{\numberline {1}Introduction}{2}}
\@writefile{toc}{\contentsline {section}{\numberline {2}Materials \& methods}{2}}
